\relax 
\providecommand\hyper@newdestlabel[2]{}
\providecommand*\new@tpo@label[2]{}
\providecommand\HyperFirstAtBeginDocument{\AtBeginDocument}
\HyperFirstAtBeginDocument{\ifx\hyper@anchor\@undefined
\global\let\oldcontentsline\contentsline
\gdef\contentsline#1#2#3#4{\oldcontentsline{#1}{#2}{#3}}
\global\let\oldnewlabel\newlabel
\gdef\newlabel#1#2{\newlabelxx{#1}#2}
\gdef\newlabelxx#1#2#3#4#5#6{\oldnewlabel{#1}{{#2}{#3}}}
\AtEndDocument{\ifx\hyper@anchor\@undefined
\let\contentsline\oldcontentsline
\let\newlabel\oldnewlabel
\fi}
\fi}
\global\let\hyper@last\relax 
\gdef\HyperFirstAtBeginDocument#1{#1}
\providecommand\HyField@AuxAddToFields[1]{}
\providecommand\HyField@AuxAddToCoFields[2]{}
\@writefile{toc}{}
\citation{Foundation}
\citation{denes2014quickchick}
\citation{LM}
\citation{LM}
\citation{komauli2018property}
\citation{Pezze}
\citation{InPraise}
\citation{claessen2011quickcheck}
\citation{claessen2011quickcheck}
\@writefile{toc}{\contentsline {chapter}{\numberline {1}Introduction}{6}{chapter.1}\protected@file@percent }
\@writefile{lof}{\addvspace {10\p@ }}
\@writefile{lot}{\addvspace {10\p@ }}
\@writefile{toc}{\contentsline {section}{\numberline {1.1}Property Based Testing}{6}{section.1.1}\protected@file@percent }
\citation{BlanchetteBN11}
\@writefile{toc}{\contentsline {subsection}{\numberline {1.1.1}PBT and formal verification}{7}{subsection.1.1.1}\protected@file@percent }
\@writefile{toc}{\contentsline {subsection}{\numberline {1.1.2}Generation of data}{7}{subsection.1.1.2}\protected@file@percent }
\citation{denes2014quickchick}
\citation{SF2}
\citation{LM}
\citation{komauli2018property}
\@writefile{toc}{\contentsline {section}{\numberline {1.2}Project Details}{8}{section.1.2}\protected@file@percent }
\@writefile{toc}{\contentsline {subsection}{\numberline {1.2.1}Project Overview}{8}{subsection.1.2.1}\protected@file@percent }
\citation{LM}
\@writefile{toc}{\contentsline {subsection}{\numberline {1.2.2}Thesis Outline}{9}{subsection.1.2.2}\protected@file@percent }
\@writefile{toc}{\contentsline {chapter}{\numberline {2}PTB with QuickChick by example}{10}{chapter.2}\protected@file@percent }
\@writefile{lof}{\addvspace {10\p@ }}
\@writefile{lot}{\addvspace {10\p@ }}
\@writefile{toc}{\contentsline {section}{\numberline {2.1}Static and dynamic semantics of the Typed Arithmetic Expressions language}{10}{section.2.1}\protected@file@percent }
\newlabel{sec:types}{{2.1}{10}{Static and dynamic semantics of the Typed Arithmetic Expressions language}{section.2.1}{}}
\citation{wadler1995monads}
\citation{GG}
\@writefile{toc}{\contentsline {section}{\numberline {2.2}Testing progress}{12}{section.2.2}\protected@file@percent }
\@writefile{toc}{\contentsline {subsection}{\numberline {2.2.1}Test progress functionally }{13}{subsection.2.2.1}\protected@file@percent }
\citation{pierce2002types}
\@writefile{toc}{\contentsline {subsection}{\numberline {2.2.2}Generators}{15}{subsection.2.2.2}\protected@file@percent }
\@writefile{toc}{\contentsline {subsubsection}{Using automatic naive generators}{15}{section*.4}\protected@file@percent }
\citation{paraskevopoulou2014quickchick}
\citation{SF}
\@writefile{toc}{\contentsline {subsubsection}{Custom generators}{16}{section*.5}\protected@file@percent }
\@writefile{lof}{\contentsline {figure}{\numberline {2.1}{\ignorespaces Random generator for well typed terms}}{17}{figure.2.1}\protected@file@percent }
\newlabel{fig:gent}{{2.1}{17}{Random generator for well typed terms}{figure.2.1}{}}
\citation{GG}
\@writefile{toc}{\contentsline {subsection}{\numberline {2.2.3}Deriving generators from Inductive definitions }{18}{subsection.2.2.3}\protected@file@percent }
\citation{GG}
\@writefile{toc}{\contentsline {subsection}{\numberline {2.2.4}{Filtering a generator}}{19}{subsection.2.2.4}\protected@file@percent }
\citation{papadakis2019mutation}
\@writefile{toc}{\contentsline {section}{\numberline {2.3}Mutation testing}{20}{section.2.3}\protected@file@percent }
\citation{SF}
\citation{SF}
\citation{APPEL200795}
\citation{KO}
\citation{APPEL200795}
\@writefile{toc}{\setcounter {tocdepth}{2}}
\@writefile{toc}{\contentsline {chapter}{\numberline {3}The List Machine}{23}{chapter.3}\protected@file@percent }
\@writefile{lof}{\addvspace {10\p@ }}
\@writefile{lot}{\addvspace {10\p@ }}
\@writefile{toc}{\contentsline {section}{\numberline {3.1}Static and Dynamic Semantics}{23}{section.3.1}\protected@file@percent }
\@writefile{toc}{\contentsline {subsection}{\numberline {3.1.1}Machine syntax}{23}{subsection.3.1.1}\protected@file@percent }
\@writefile{toc}{\contentsline {subsection}{\numberline {3.1.2}Operational semantics}{25}{subsection.3.1.2}\protected@file@percent }
\citation{APPEL200795}
\@writefile{toc}{\contentsline {paragraph}{Sample program}{26}{section*.6}\protected@file@percent }
\@writefile{toc}{\contentsline {subsection}{\numberline {3.1.3}Type system}{26}{subsection.3.1.3}\protected@file@percent }
\@writefile{toc}{\contentsline {subsection}{\numberline {3.1.4}Instruction typing}{27}{subsection.3.1.4}\protected@file@percent }
\@writefile{lof}{\contentsline {figure}{\numberline {3.1}{\ignorespaces List Machine instruction typing}}{28}{figure.3.1}\protected@file@percent }
\newlabel{fig:list_machine_instruction_typing}{{3.1}{28}{List Machine instruction typing}{figure.3.1}{}}
\@writefile{toc}{\contentsline {subsection}{\numberline {3.1.5}Block typing}{28}{subsection.3.1.5}\protected@file@percent }
\@writefile{lof}{\contentsline {figure}{\numberline {3.2}{\ignorespaces List Machine block typing}}{28}{figure.3.2}\protected@file@percent }
\newlabel{fig:list_machine_block_typing}{{3.2}{28}{List Machine block typing}{figure.3.2}{}}
\@writefile{lof}{\contentsline {figure}{\numberline {3.3}{\ignorespaces List Machine blocks typing}}{28}{figure.3.3}\protected@file@percent }
\newlabel{fig:list_machine_blocks_typing}{{3.3}{28}{List Machine blocks typing}{figure.3.3}{}}
\@writefile{toc}{\contentsline {subsection}{\numberline {3.1.6}Program typing}{29}{subsection.3.1.6}\protected@file@percent }
\@writefile{toc}{\contentsline {section}{\numberline {3.2}Properties}{31}{section.3.2}\protected@file@percent }
\@writefile{lof}{\contentsline {figure}{\numberline {3.4}{\ignorespaces List Machine progress and preservation properties}}{33}{figure.3.4}\protected@file@percent }
\newlabel{fig:list_machine_progress_preservation}{{3.4}{33}{List Machine progress and preservation properties}{figure.3.4}{}}
\citation{komauli2018property}
\@writefile{lof}{\contentsline {figure}{\numberline {3.5}{\ignorespaces List Machine soundness}}{34}{figure.3.5}\protected@file@percent }
\newlabel{fig:list_machine_soundness}{{3.5}{34}{List Machine soundness}{figure.3.5}{}}
\citation{komauli2018property}
\@writefile{toc}{\contentsline {section}{\numberline {3.3}Smart generators}{35}{section.3.3}\protected@file@percent }
\@writefile{lof}{\contentsline {figure}{\numberline {3.6}{\ignorespaces genProgram and genInstructionContext generators}}{36}{figure.3.6}\protected@file@percent }
\newlabel{fig:genProgramGenInstructionContext}{{3.6}{36}{genProgram and genInstructionContext generators}{figure.3.6}{}}
\@writefile{toc}{\contentsline {subsection}{\numberline {3.3.1}Checking generators}{37}{subsection.3.3.1}\protected@file@percent }
\@writefile{toc}{\contentsline {section}{\numberline {3.4}Sampling generators}{37}{section.3.4}\protected@file@percent }
\@writefile{lof}{\contentsline {figure}{\numberline {3.7}{\ignorespaces genInstruction and genFetchField}}{38}{figure.3.7}\protected@file@percent }
\newlabel{fig:genFetchField}{{3.7}{38}{genInstruction and genFetchField}{figure.3.7}{}}
\@writefile{lof}{\contentsline {figure}{\numberline {3.8}{\ignorespaces checking generators}}{39}{figure.3.8}\protected@file@percent }
\newlabel{fig:checking-generators}{{3.8}{39}{checking generators}{figure.3.8}{}}
\citation{komauli2018property}
\citation{komauli2018property}
\@writefile{toc}{\contentsline {section}{\numberline {3.5}Mutations}{41}{section.3.5}\protected@file@percent }
\citation{komauli2018property}
\@writefile{lot}{\contentsline {table}{\numberline {3.1}{\ignorespaces List Machine mutations, whose ids are the same of\nobreakspace  {}\citep  {komauli2018property} }}{42}{table.3.1}\protected@file@percent }
\newlabel{tbl:list_machine_mutations}{{3.1}{42}{List Machine mutations, whose ids are the same of~\citep {komauli2018property}}{table.3.1}{}}
\@writefile{lot}{\contentsline {table}{\numberline {3.2}{\ignorespaces Mutant on the left and property that kills it on the right}}{42}{table.3.2}\protected@file@percent }
\newlabel{tbl:list_machine_test_results}{{3.2}{42}{Mutant on the left and property that kills it on the right}{table.3.2}{}}
\@writefile{lof}{\contentsline {figure}{\numberline {3.9}{\ignorespaces mutation 13, mutation 17, mutation 18}}{43}{figure.3.9}\protected@file@percent }
\newlabel{fig:mutations}{{3.9}{43}{mutation 13, mutation 17, mutation 18}{figure.3.9}{}}
\citation{BlanchetteBN11}
\citation{SF2}
\citation{LM}
\citation{komauli2018property}
\@writefile{toc}{\setcounter {tocdepth}{3}}
\@writefile{toc}{\contentsline {chapter}{\numberline {4}Conclusion}{44}{chapter.4}\protected@file@percent }
\@writefile{lof}{\addvspace {10\p@ }}
\@writefile{lot}{\addvspace {10\p@ }}
\@writefile{toc}{\contentsline {section}{\numberline {4.1}Goals and results}{44}{section.4.1}\protected@file@percent }
\citation{komauli2018property}
\@writefile{toc}{\contentsline {subsection}{\numberline {4.1.1}QuickChick vs FsCheck}{45}{subsection.4.1.1}\protected@file@percent }
\@writefile{toc}{\contentsline {section}{\numberline {4.2}Evaluation and future work}{45}{section.4.2}\protected@file@percent }
\bibdata{bib/Literature}
\bibcite{LM}{{1}{}{{}}{{}}}
\bibcite{APPEL200795}{{2}{}{{}}{{}}}
\bibcite{SF2}{{3}{}{{}}{{}}}
\bibcite{BlanchetteBN11}{{4}{}{{}}{{}}}
\bibcite{claessen2011quickcheck}{{5}{}{{}}{{}}}
\bibcite{denes2014quickchick}{{6}{}{{}}{{}}}
\bibcite{komauli2018property}{{7}{}{{}}{{}}}
\bibcite{KO}{{8}{}{{}}{{}}}
\bibcite{GG}{{9}{}{{}}{{}}}
\bibcite{SF}{{10}{}{{}}{{}}}
\bibcite{InPraise}{{11}{}{{}}{{}}}
\bibcite{papadakis2019mutation}{{12}{}{{}}{{}}}
\bibcite{paraskevopoulou2014quickchick}{{13}{}{{}}{{}}}
\bibcite{Foundation}{{14}{}{{}}{{}}}
\bibcite{pierce2002types}{{15}{}{{}}{{}}}
\bibcite{wadler1995monads}{{16}{}{{}}{{}}}
\bibcite{Pezze}{{17}{}{{}}{{}}}
\bibstyle{plain}
\providecommand\NAT@force@numbers{}\NAT@force@numbers
