\relax 
\providecommand\hyper@newdestlabel[2]{}
\providecommand\HyperFirstAtBeginDocument{\AtBeginDocument}
\HyperFirstAtBeginDocument{\ifx\hyper@anchor\@undefined
\global\let\oldcontentsline\contentsline
\gdef\contentsline#1#2#3#4{\oldcontentsline{#1}{#2}{#3}}
\global\let\oldnewlabel\newlabel
\gdef\newlabel#1#2{\newlabelxx{#1}#2}
\gdef\newlabelxx#1#2#3#4#5#6{\oldnewlabel{#1}{{#2}{#3}}}
\AtEndDocument{\ifx\hyper@anchor\@undefined
\let\contentsline\oldcontentsline
\let\newlabel\oldnewlabel
\fi}
\fi}
\global\let\hyper@last\relax 
\gdef\HyperFirstAtBeginDocument#1{#1}
\providecommand\HyField@AuxAddToFields[1]{}
\providecommand\HyField@AuxAddToCoFields[2]{}
\citation{Pezze}
\citation{denes2014quickchick}
\citation{claessen2011quickcheck}
\@writefile{toc}{}
\@writefile{toc}{\contentsline {section}{\numberline {1}Introduction}{1}{section.1}\protected@file@percent }
\@writefile{toc}{\contentsline {section}{\numberline {2}Project overview and results}{1}{section.2}\protected@file@percent }
\citation{SF}
\citation{GG}
\citation{LM}
\citation{komauli2018property}
\@writefile{toc}{\contentsline {section}{\numberline {3}Conclusions and future work}{2}{section.3}\protected@file@percent }
\citation{Foundation}
\citation{claessen2011quickcheck}
\citation{SF}
\citation{GG}
\citation{LM}
\citation{KO}
\citation{pierce2002types}
\citation{komauli2018property}
\citation{Pezze}
\bibdata{Literature}
\bibcite{LM}{{1}{}{{}}{{}}}
\bibcite{APPEL200795}{{2}{}{{}}{{}}}
\bibcite{SF2}{{3}{}{{}}{{}}}
\bibcite{claessen2011quickcheck}{{4}{}{{}}{{}}}
\bibcite{denes2014quickchick}{{5}{}{{}}{{}}}
\bibcite{komauli2018property}{{6}{}{{}}{{}}}
\bibcite{KO}{{7}{}{{}}{{}}}
\bibcite{GG}{{8}{}{{}}{{}}}
\bibcite{SF}{{9}{}{{}}{{}}}
\bibcite{paraskevopoulou2014quickchick}{{10}{}{{}}{{}}}
\bibcite{Foundation}{{11}{}{{}}{{}}}
\bibcite{pierce2002types}{{12}{}{{}}{{}}}
\bibcite{Pezze}{{13}{}{{}}{{}}}
\bibstyle{plain}
\providecommand\NAT@force@numbers{}\NAT@force@numbers
